<?xml version="1.0" encoding="UTF-8"?>
<svg width="508px" height="48px" viewBox="0 0 508 48" version="1.1" xmlns="http://www.w3.org/2000/svg" xmlns:xlink="http://www.w3.org/1999/xlink">
    <!-- Generator: sketchtool 51.2 (57519) - http://www.bohemiancoding.com/sketch -->
    <title>5C340375-D5E5-4AA4-9372-4C897DAB0864</title>
    <desc>Created with sketchtool.</desc>
    <defs>
        <polygon id="path-1" points="0 0.2265 507.9319 0.2265 507.9319 2.2265 0 2.2265"></polygon>
        <polygon id="path-3" points="0.12219878 0.623 39.0195502 0.623 39.0195502 47.9999542 0.12219878 47.9999542"></polygon>
    </defs>
    <g id="landing-2" stroke="none" stroke-width="1" fill="none" fill-rule="evenodd">
        <g id="Pregnancy-pregnantbeing.com" transform="translate(-434.000000, -651.000000)">
            <g id="divider" transform="translate(434.000000, 650.000000)">
                <g id="2" transform="translate(0.000000, 24.377400)">
                    <mask id="mask-2" fill="white">
                        <use xlink:href="#path-1"></use>
                    </mask>
                    <g id="Clip-2"></g>
                    <path d="M506.9659,0.2265 L0.9659,0.2265 C-0.3211,0.2265 -0.3231,2.2265 0.9659,2.2265 L506.9659,2.2265 C508.2529,2.2265 508.2549,0.2265 506.9659,0.2265" id="Fill-1" fill="#070808" mask="url(#mask-2)"></path>
                </g>
                <g id="1" transform="translate(225.000000, 0.377400)">
                    <mask id="mask-4" fill="white">
                        <use xlink:href="#path-3"></use>
                    </mask>
                    <g id="Clip-5"></g>
                    <path d="M20.3267,45.6166 C14.3007,38.8786 8.2757,32.1406 2.2497,25.4016 C2.3097,25.3486 2.3667,25.2876 2.4177,25.2156 C7.7587,17.6656 13.0997,10.1146 18.4407,2.5646 C18.4847,2.5026 18.5177,2.4416 18.5457,2.3806 C24.4027,10.0796 30.2597,17.7786 36.1167,25.4776 C30.8537,32.1906 25.5907,38.9036 20.3267,45.6166 M38.6257,25.4956 L38.7887,25.2886 C39.5707,24.2906 38.1797,22.8746 37.3847,23.8646 C31.5977,16.2576 25.8107,8.6506 20.0237,1.0436 C19.4587,0.3006 18.3737,0.6426 18.1457,1.2826 C17.7127,1.0236 17.0867,1.0286 16.7137,1.5556 C11.3727,9.1056 6.0317,16.6556 0.6907,24.2056 C0.5367,24.4246 0.4927,24.6396 0.5207,24.8366 C0.1207,25.1796 -0.0673,25.8066 0.3857,26.3136 C6.5737,33.2336 12.7617,40.1526 18.9497,47.0726 C19.1867,47.3376 19.4627,47.4106 19.7237,47.3736 C20.0067,47.9586 20.7517,48.2926 21.2527,47.6526 C26.6507,40.7696 32.0477,33.8856 37.4447,27.0016 C38.2777,27.3676 39.4107,26.5286 38.7527,25.6626 C38.7107,25.6076 38.6687,25.5516 38.6257,25.4956" id="Fill-4" fill="#070808" mask="url(#mask-4)"></path>
                </g>
                <path d="M258.1224,43.5839 C252.7424,37.5639 247.3624,31.5539 241.9824,25.5339 C242.0424,25.4839 242.0924,25.4339 242.1324,25.3739 C246.9024,18.6339 251.6724,11.8839 256.4424,5.1439 C256.4824,5.0939 256.5124,5.0339 256.5324,4.9839 C261.7624,11.8539 266.9924,18.7339 272.2224,25.6039 C267.5224,31.5939 262.8224,37.5939 258.1224,43.5839 M274.4624,25.6239 L274.6024,25.4339 C275.3024,24.5439 274.0624,23.2839 273.3524,24.1639 C268.1824,17.3739 263.0224,10.5839 257.8524,3.7939 C257.3524,3.1239 256.3824,3.4339 256.1724,4.0039 C255.7924,3.7739 255.2324,3.7739 254.9024,4.2439 C250.1324,10.9839 245.3624,17.7239 240.5924,24.4639 C240.4524,24.6639 240.4224,24.8539 240.4424,25.0339 C240.0824,25.3339 239.9124,25.8939 240.3224,26.3539 C245.8424,32.5239 251.3724,38.7039 256.8924,44.8839 C257.1024,45.1239 257.3524,45.1839 257.5824,45.1539 C257.8424,45.6739 258.5024,45.9739 258.9524,45.4039 C263.7724,39.2539 268.5924,33.1139 273.4024,26.9639 C274.1524,27.2939 275.1624,26.5439 274.5724,25.7739 C274.5324,25.7239 274.5024,25.6739 274.4624,25.6239" id="Fill-7" fill="#070808"></path>
                <path d="M272.2224,25.6039 C267.5224,31.5939 262.8224,37.5939 258.1224,43.5839 C252.7424,37.5639 247.3624,31.5539 241.9824,25.5339 C242.0424,25.4839 242.0924,25.4339 242.1324,25.3739 C246.9024,18.6339 251.6724,11.8839 256.4424,5.1439 C256.4824,5.0939 256.5124,5.0339 256.5324,4.9839 C261.7624,11.8539 266.9924,18.7339 272.2224,25.6039" id="Fill-9" fill="#070808"></path>
            </g>
        </g>
    </g>
</svg>