<?xml version="1.0" encoding="UTF-8"?>
<svg width="106px" height="90px" viewBox="0 0 106 90" version="1.1" xmlns="http://www.w3.org/2000/svg" xmlns:xlink="http://www.w3.org/1999/xlink">
    <!-- Generator: sketchtool 51.2 (57519) - http://www.bohemiancoding.com/sketch -->
    <title>1B85F66C-35E8-45DF-988D-0ACBCCE0CDDB</title>
    <desc>Created with sketchtool.</desc>
    <defs>
        <polygon id="path-1" points="0.393329895 0.0913786583 62.6914833 0.0913786583 62.6914833 89.3702859 0.393329895 89.3702859"></polygon>
    </defs>
    <g id="landing-2" stroke="none" stroke-width="1" fill="none" fill-rule="evenodd">
        <g id="Pregnancy-pregnantbeing.com" transform="translate(-165.000000, -838.000000)">
            <g id="nutrition" transform="translate(135.000000, 749.000000)">
                <g id="news1" transform="translate(30.000000, 89.000000)">
                    <g id="food1" transform="translate(0.191406, 0.000000)">
                        <path d="M75.9601163,74.4506614 C67.6873353,74.4506614 60.9820497,66.7688291 60.9820497,57.292561 C60.9820497,47.8162929 67.6873353,40.1344607 75.9601163,40.1344607 C84.2318932,40.1344607 90.9386851,47.8162929 90.9386851,57.292561 C90.9386851,66.7688291 84.2318932,74.4506614 75.9601163,74.4506614 M75.9601163,2.93129682 C59.5797387,2.93129682 46.3017168,42.2713154 46.3017168,58.9584643 C46.3017168,75.6461152 59.5797387,89.1736712 75.9601163,89.1736712 C92.340494,89.1736712 105.618516,75.6461152 105.618516,58.9584643 C105.618516,42.2713154 92.340494,2.93129682 75.9601163,2.93129682" id="Fill-1" fill="#C9E084"></path>
                        <g id="Group-5" transform="translate(38.158121, 0.410702)">
                            <mask id="mask-2" fill="white">
                                <use xlink:href="#path-1"></use>
                            </mask>
                            <g id="Clip-4"></g>
                            <path d="M31.5424066,3.12791156 C25.0469906,3.12791156 17.8968617,10.7349338 11.9251157,23.9983954 C6.89075416,35.1807332 3.37418206,49.0140563 3.37418206,57.6367875 C3.37418206,73.4603577 16.0105451,86.3337028 31.5424066,86.3337028 C47.0742681,86.3337028 59.7106311,73.4603577 59.7106311,57.6367875 C59.7106311,49.0140563 56.194059,35.1807332 51.1596974,23.9983954 C45.1879515,10.7349338 38.0378225,3.12791156 31.5424066,3.12791156 M31.5424066,89.3702859 C14.3667334,89.3702859 0.393329895,75.1347963 0.393329895,57.6367875 C0.393329895,48.6229355 4.02136388,34.2699591 9.21588914,22.7321483 C13.0231659,14.277112 20.9856612,0.0913284502 31.5424066,0.0913284502 C42.0986499,0.0913284502 50.0616473,14.277112 53.868924,22.7321483 C59.0634493,34.2699591 62.6914833,48.6229355 62.6914833,57.6367875 C62.6914833,75.1347963 48.7180798,89.3702859 31.5424066,89.3702859" id="Fill-3" fill="#283182" mask="url(#mask-2)"></path>
                        </g>
                        <path d="M69.7005276,40.7418777 C62.2632086,40.7418777 56.212636,47.7579512 56.212636,56.3816865 C56.212636,65.0054219 62.2632086,72.0209933 69.7005276,72.0209933 C77.1378467,72.0209933 83.1884192,65.0054219 83.1884192,56.3816865 C83.1884192,47.7579512 77.1378467,40.7418777 69.7005276,40.7418777 M69.7005276,75.0575764 C60.619899,75.0575764 53.2317838,66.6793584 53.2317838,56.3816865 C53.2317838,46.0835126 60.619899,37.7052946 69.7005276,37.7052946 C78.7811563,37.7052946 86.1692714,46.0835126 86.1692714,56.3816865 C86.1692714,66.6793584 78.7811563,75.0575764 69.7005276,75.0575764" id="Fill-6" fill="#283182"></path>
                        <path d="M30.0542901,89.6133431 C26.2173906,89.6133431 22.3885244,88.8009768 18.770532,87.1802608 C11.9126139,84.1075279 6.64026618,78.497782 3.92350838,71.3843049 C1.04307232,63.8435573 -0.507854466,50.6378349 0.150373122,39.2707315 C0.634880843,30.9171155 2.7747481,16.376361 11.6660924,12.8522577 C21.5515561,8.93201281 35.5154201,20.6314935 45.2844012,32.8867774 C45.8035525,33.5374738 45.7061488,34.4939373 45.0675024,35.0226281 C44.4288559,35.5513189 43.4894632,35.4529111 42.970814,34.8012105 C37.8495925,28.37709 32.2247843,22.9350391 27.1326834,19.4787166 C23.1024829,16.7428798 17.3340796,13.8629458 12.7465697,15.6824857 C7.38485162,17.8072905 3.87832113,26.4701881 3.12620448,39.4494722 C2.49006844,50.4269611 3.96016026,63.106001 6.70152001,70.2827402 C9.1295815,76.6405861 13.8421094,81.6538603 19.9710066,84.4002408 C26.0999037,87.1466214 32.9116304,87.2967435 39.1524915,84.8229927 C42.4456378,83.5175833 45.3682486,81.5720212 47.8374807,79.0405311 C48.4178858,78.4455656 49.3612952,78.4430552 49.9452148,79.034004 C50.5291345,79.6254549 50.532147,80.5864371 49.9517419,81.1814025 C47.1872864,84.0156471 43.9172359,86.1931704 40.2334709,87.6532207 C36.9332956,88.9611405 33.4910314,89.6133431 30.0542901,89.6133431" id="Fill-8" fill="#283182"></path>
                        <path d="M77.0841743,84.0097728 C76.459084,84.0102749 75.8771726,83.6066021 75.6698134,82.9694619 C75.4107398,82.1731622 75.8344958,81.3136003 76.615231,81.050008 C86.3967641,77.745816 92.9684963,68.0596782 92.9684963,56.9481338 C92.9684963,49.3235387 90.0338355,37.0908484 85.8314214,27.1998618 C80.8768907,15.5365309 74.9874859,8.8478139 69.6739676,8.8478139 C67.1349463,8.8478139 64.4919943,10.325939 61.8199217,13.2405165 C61.2585956,13.8530548 60.3146842,13.8861921 59.7136938,13.3138203 C59.1122013,12.7414485 59.0800682,11.7804663 59.6413942,11.167426 C62.8998969,7.61319785 66.2753844,5.81123079 69.6739676,5.81123079 C78.6521718,5.81123079 85.3649886,18.4561292 88.5672583,25.9938643 C92.9132674,36.2247595 95.9493485,48.9530033 95.9493485,56.9481338 C95.9493485,69.3711126 88.5567146,80.2150481 77.5531175,83.9324524 C77.3979746,83.9851709 77.2398192,84.0097728 77.0841743,84.0097728" id="Fill-10" fill="#283182"></path>
                        <path d="M67.7490912,85.1463325 C67.7084227,85.1463325 67.6672521,85.1448263 67.6260815,85.1418138 C54.0407862,84.014643 43.3986871,71.6303244 43.3986871,56.9479832 C43.3986871,48.0310328 47.5041997,31.0115066 54.1366836,19.063496 C54.5423647,18.3334709 55.4511304,18.0764057 56.1675994,18.4891159 C56.8845704,18.9018261 57.1371169,19.8281647 56.7314358,20.5581898 C50.3374401,32.0769215 46.3795393,48.4156265 46.3795393,56.9479832 C46.3795393,70.0603185 55.8181513,81.1151279 67.8685864,82.1147702 C68.688986,82.1830532 69.2995159,82.9155887 69.2332413,83.7515528 C69.168975,84.5458442 68.5172744,85.1463325 67.7490912,85.1463325" id="Fill-12" fill="#283182"></path>
                        <path d="M59.0445711,59.7939765 C58.3943768,59.7939765 57.797403,59.3576685 57.6116332,58.6893993 C56.8173418,55.8340673 57.491636,52.6935535 58.3868456,50.7063187 C58.7307707,49.9441605 59.6149346,49.6102769 60.3635367,49.960227 C61.1116367,50.3101772 61.4394953,51.2119138 61.0960722,51.97357 C60.2490623,53.8528575 60.0070595,56.1639342 60.4790152,57.8614685 C60.7039473,58.6683119 60.2435394,59.5072885 59.4517584,59.7362372 C59.3156946,59.7748974 59.1791287,59.7939765 59.0445711,59.7939765" id="Fill-14" fill="#283182"></path>
                        <path d="M61.4431604,49.4130597 C61.1323726,49.4130597 60.8185722,49.3166602 60.5474488,49.115828 C59.8666275,48.6117391 59.7155013,47.6402133 60.2110548,46.9458359 C60.3139813,46.8017388 61.2433324,45.5123959 62.1586252,44.721117 C62.8007862,44.1658159 63.7632746,44.2461488 64.308032,44.9008619 C64.8527894,45.5550728 64.7744648,46.5356361 64.1318017,47.0904351 C63.591061,47.5588762 62.8836295,48.4852148 62.6782786,48.772907 C62.3800427,49.1911401 61.9146141,49.4130597 61.4431604,49.4130597" id="Fill-16" fill="#283182"></path>
                    </g>
                </g>
            </g>
        </g>
    </g>
</svg>